# Blender v2.79 (sub 0) OBJ File: 'IceWall.blend'
# www.blender.org
mtllib IceCubeBottom.mtl
o Cube.002_Cube.003
v -2.255045 -1.611887 2.311759
v 1.000000 1.000000 -0.999999
v 0.999999 1.000000 1.000001
v -1.000000 1.000000 1.000000
v -1.000000 1.000000 -1.000000
v 1.318832 -0.024281 -1.319000
v 1.318831 -0.024281 1.314099
v -2.255045 -1.420399 0.006424
v -1.314268 -0.024281 1.314098
v -1.314267 -0.024281 -1.319000
v 1.000000 1.115668 0.000001
v 0.000000 1.000000 -1.000000
v -0.000001 1.000000 1.000000
v -1.000000 1.115668 -0.000000
v 0.002282 -0.024281 -1.319000
v -1.200257 -0.024281 -0.002451
v 0.002282 -0.024281 1.314099
v 1.432842 -0.024281 -0.002450
v -0.000000 1.481500 0.000000
v 1.089408 0.521799 -1.089174
v 1.089407 0.521799 1.087994
v -1.087761 0.521799 1.087994
v -1.087761 0.521799 -1.089175
v 1.000000 1.000000 0.500001
v -0.500000 1.000000 -0.841872
v -0.500000 1.000000 1.158127
v -1.016280 1.000000 -0.500000
v 1.202957 -1.611887 -2.367810
v 1.638287 -0.655553 -1.639964
v 1.638286 -0.655553 1.627084
v -2.255045 -1.611887 1.159092
v -1.628762 -0.655553 1.627084
v -1.628761 -0.655553 -1.639965
v 0.983720 1.000000 -0.499999
v 0.500000 1.000000 -1.029887
v 0.499999 1.000000 0.970113
v -1.000000 1.000000 0.500000
v -0.559041 0.050948 -1.022301
v 0.777401 -0.016921 -1.529741
v 0.000824 0.521799 -1.089174
v 0.004763 -0.655553 -1.639964
v -1.556692 -0.024281 -0.660726
v -1.467034 -0.024281 0.655824
v -1.487301 -0.655553 -0.006440
v -1.174746 0.521799 -0.000590
v -0.559042 0.050948 1.610798
v 0.777400 -0.016921 1.103358
v 0.004762 -0.655553 1.627084
v 0.000823 0.521799 1.213902
v 1.166065 -0.024281 0.655824
v 1.440384 -0.024281 -0.660725
v 1.795657 -0.955945 -0.006628
v 1.241473 0.521799 -0.000590
v -0.000000 1.345601 0.500000
v 0.000000 1.255419 -0.500000
v 0.500000 1.241482 0.000000
v -0.500000 1.255419 0.000000
v -0.500000 1.080727 -0.500000
v 0.500000 1.255419 -0.500000
v 0.500000 1.228031 0.500000
v 1.129265 0.521799 -0.544882
v 1.337495 -0.655553 -0.823202
v 1.638286 -0.655553 0.810322
v 0.545115 0.521799 1.086746
v 0.821524 -0.655553 1.436274
v -0.812000 -0.655553 1.885389
v -1.269016 0.521799 0.543702
v -1.628762 -0.655553 0.810322
v -1.929552 -0.655553 -0.823202
v 0.821525 -0.655553 -1.830774
v 0.545116 0.521799 -1.216331
v -0.543469 0.521799 -0.917039
v -0.811999 -0.655553 -1.381659
v -1.288209 0.521799 -0.544883
v -0.543469 0.521799 1.260129
v 1.293128 0.521799 0.543702
v -0.500000 1.222797 0.500000
v 2.079291 -1.320633 -2.095584
v 2.079289 -1.320633 2.058569
v -2.255045 -1.611887 -2.298908
v 2.079290 -1.148096 -0.018508
v 0.050290 -1.611887 -2.298908
v 0.002213 -1.320633 2.058568
v 2.079290 -1.320633 1.020030
v -1.102377 -1.611887 -1.934372
v -1.036325 -1.320633 2.387010
v -2.292576 -1.611887 -1.146242
v 2.045476 -1.320633 -1.057047
v 1.040751 -1.320633 1.996489
v -2.552169 -2.230389 2.347059
v -2.552169 -2.034678 -0.009488
v 1.232556 -2.223327 -2.413764
v -2.552169 -2.230387 1.168785
v 2.410830 -2.223328 -2.343331
v 2.410828 -2.223332 2.369764
v -2.552169 -2.230385 -2.366035
v 2.410829 -2.027621 0.013216
v 0.054283 -2.223326 -2.343331
v 0.054281 -2.223330 2.369762
v 2.410829 -2.223331 1.191490
v -1.123991 -2.223326 -1.970697
v -1.123992 -2.223330 2.742396
v -2.590534 -2.230386 -1.187762
v 2.372465 -2.223329 -1.165058
v 1.232554 -2.223331 2.299332
vt 0.636114 0.549454
vt 0.633757 0.604251
vt 0.598277 0.599974
vt 0.590868 0.550293
vt 0.632564 0.342635
vt 0.635311 0.398285
vt 0.599672 0.396929
vt 0.592588 0.346919
vt 0.557946 0.556370
vt 0.565187 0.614284
vt 0.705391 0.668671
vt 0.704040 0.610591
vt 0.739995 0.613708
vt 0.746689 0.663050
vt 0.862499 0.587274
vt 0.946360 0.617570
vt 0.952710 0.749299
vt 0.870772 0.675882
vt 0.771992 0.561238
vt 0.806083 0.563092
vt 0.819001 0.644178
vt 0.775615 0.620853
vt 0.779480 0.442774
vt 0.824437 0.418053
vt 0.819247 0.500735
vt 0.776331 0.501216
vt 0.875196 0.411908
vt 0.952738 0.371542
vt 0.952496 0.488223
vt 0.870230 0.499229
vt 0.718309 0.806885
vt 0.711452 0.731892
vt 0.760729 0.724683
vt 0.779061 0.798987
vt 0.602879 0.780810
vt 0.615885 0.716335
vt 0.662917 0.713557
vt 0.659104 0.778024
vt 0.627133 0.659377
vt 0.668802 0.599822
vt 0.665999 0.661093
vt 0.464003 0.583724
vt 0.517016 0.559206
vt 0.522996 0.640724
vt 0.472108 0.672044
vt 0.479274 0.412833
vt 0.528059 0.418264
vt 0.521841 0.496612
vt 0.472432 0.496308
vt 0.564470 0.443120
vt 0.600046 0.449347
vt 0.597576 0.501178
vt 0.560345 0.499947
vt 0.611392 0.214921
vt 0.620317 0.292328
vt 0.575189 0.286804
vt 0.553524 0.214770
vt 0.725881 0.227174
vt 0.714612 0.285360
vt 0.668659 0.283858
vt 0.669111 0.181673
vt 0.707704 0.347217
vt 0.704561 0.398432
vt 0.669703 0.404727
vt 0.669363 0.343277
vt 0.636577 0.453149
vt 0.638436 0.501262
vt 0.702760 0.452720
vt 0.703408 0.500942
vt 0.669294 0.501489
vt 0.669861 0.452902
vt 0.707127 0.554684
vt 0.669874 0.550379
vt 0.741529 0.499364
vt 0.734717 0.555980
vt 0.740475 0.397297
vt 0.742517 0.448386
vt 0.760278 0.285223
vt 0.746363 0.347109
vt 0.741642 0.134359
vt 0.668899 0.147691
vt 0.814581 0.133218
vt 0.782500 0.213356
vt 0.596292 0.133407
vt 0.523057 0.133854
vt 0.523277 0.361071
vt 0.564978 0.386925
vt 0.418082 0.388903
vt 0.415824 0.497133
vt 0.418809 0.282609
vt 0.473244 0.329188
vt 0.407390 0.603764
vt 0.381218 0.722512
vt 0.569450 0.707108
vt 0.587498 0.647989
vt 0.574298 0.894711
vt 0.656100 0.884552
vt 0.493548 0.888404
vt 0.545515 0.776873
vt 0.736597 0.912079
vt 0.817757 0.920410
vt 0.817049 0.358830
vt 0.867971 0.324997
vt 0.927002 0.280720
vt 0.774768 0.384738
vt 0.993194 0.245042
vt 0.996032 0.366059
vt 0.749359 0.037230
vt 0.832026 0.036034
vt 0.992565 0.619550
vt 0.999919 0.777662
vt 0.654027 0.953532
vt 0.570818 0.963896
vt 0.347822 0.366611
vt 0.354453 0.243249
vt 0.818405 0.990345
vt 0.735644 0.981978
vt 0.331068 0.740256
vt 0.350997 0.609560
vt 0.666594 0.053753
vt 0.996893 0.488402
vt 0.345696 0.491534
vt 0.488441 0.957362
vt 0.583796 0.036034
vt 0.500923 0.036469
vt 0.000081 0.699717
vt 0.036231 0.562555
vt 0.080418 0.714337
vt 0.110183 0.224203
vt 0.019287 0.326853
vt 0.030140 0.211707
vt 0.273535 0.237543
vt 0.191694 0.230107
vt 0.018027 0.443043
vt 0.241889 0.732823
vt 0.162385 0.720612
vn -0.2413 0.9530 0.1833
vn 0.9053 0.3864 0.1766
vn -0.2938 0.2249 0.9290
vn -0.9101 0.3688 -0.1889
vn 0.2740 0.4175 -0.8664
vn 0.3188 0.2273 -0.9202
vn -0.2299 0.3957 -0.8891
vn -0.1126 0.5086 -0.8536
vn -0.7892 0.5410 -0.2907
vn -0.9203 0.2968 -0.2547
vn -0.9238 0.3807 -0.0412
vn -0.3110 0.4897 0.8145
vn 0.2166 0.4489 0.8669
vn 0.1404 0.3294 0.9337
vn 0.8583 0.5053 -0.0889
vn 0.9498 0.1849 -0.2525
vn 0.9276 0.3413 -0.1519
vn 0.1156 0.8550 0.5056
vn 0.2286 0.9523 -0.2020
vn -0.2041 0.9410 -0.2699
vn -0.3487 0.8700 -0.3487
vn -0.2157 0.9068 -0.3621
vn -0.0639 0.9933 -0.0965
vn 0.3595 0.9277 -0.1002
vn 0.2511 0.9404 -0.2293
vn -0.0133 0.8958 -0.4443
vn 0.2103 0.9517 0.2237
vn 0.3311 0.9358 0.1208
vn 0.3334 0.9324 0.1393
vn 0.9024 0.4237 -0.0785
vn 0.8748 0.4701 -0.1174
vn 0.9702 0.2414 -0.0219
vn 0.6332 0.7654 -0.1152
vn 0.7842 0.6041 0.1414
vn 0.9851 0.1231 0.1197
vn 0.8334 0.5526 0.0000
vn 0.7613 0.6481 0.0199
vn 0.8657 0.4771 0.1517
vn 0.2443 0.1557 0.9571
vn -0.1889 0.1371 0.9724
vn -0.0292 0.2052 0.9783
vn 0.1075 0.6054 0.7886
vn -0.1121 0.5576 0.8225
vn -0.2607 0.3773 0.8886
vn -0.2126 0.6472 0.7321
vn 0.2566 0.5254 0.8113
vn 0.3693 0.3149 0.8743
vn -0.9447 0.1647 -0.2836
vn -0.8762 0.4160 0.2434
vn -0.9176 0.3642 0.1593
vn -0.7765 0.6301 0.0055
vn -0.8366 0.5479 -0.0000
vn -0.9193 0.3820 0.0952
vn -0.8463 0.5124 -0.1454
vn -0.8383 0.5231 0.1534
vn -0.8174 0.3689 0.4426
vn -0.2236 0.4221 -0.8785
vn 0.2507 0.4828 -0.8391
vn 0.1262 0.5638 -0.8162
vn -0.1433 0.2677 -0.9528
vn 0.1422 0.2925 -0.9456
vn 0.2574 0.5180 -0.8157
vn 0.2993 0.1216 -0.9464
vn -0.2969 0.1746 -0.9388
vn -0.3556 0.2970 -0.8862
vn 0.3005 0.3280 -0.8956
vn -0.3059 0.4765 -0.8243
vn -0.2537 0.5406 -0.8021
vn -0.8275 0.4715 -0.3048
vn -0.9113 0.2069 0.3561
vn -0.9218 0.3810 0.0723
vn -0.3157 0.5239 0.7911
vn 0.2973 0.3835 0.8744
vn 0.1831 0.3010 0.9359
vn 0.9935 0.1061 0.0421
vn 0.9816 0.0755 0.1756
vn 0.8948 0.4464 0.0052
vn -0.0405 0.8970 0.4402
vn -0.3253 0.9325 0.1571
vn -0.3376 0.9311 0.1381
vn 0.1303 0.2187 -0.9671
vn 0.9409 0.3372 0.0306
vn 0.2824 0.0075 -0.9593
vn -0.8986 0.4328 0.0719
vn -0.0568 0.3067 0.9501
vn -0.8998 0.4354 -0.0293
vn -0.1991 0.2907 0.9359
vn 0.9331 0.3486 -0.0883
vn -0.0595 0.0719 -0.9956
vn 0.0564 0.3283 0.9429
vn -0.9014 0.4330 0.0000
vn 0.9334 0.3540 0.0588
vn -0.3009 0.0672 -0.9513
vn -0.8989 0.4359 -0.0431
vn 0.2850 0.3271 0.9010
vn 0.9387 0.3448 0.0000
vn 0.0049 -1.0000 0.0002
vn -0.0000 -1.0000 -0.0000
vn -0.0540 -0.9929 0.1063
vn -0.0572 -0.9918 -0.1144
vn 0.0049 -1.0000 -0.0000
vn 0.0448 -0.9948 -0.0915
vn 0.0647 -0.9877 0.1422
vn 0.0014 -1.0000 -0.0000
usemtl Material
s off
f 77/1/1 37/2/1 4/3/1 26/4/1
f 76/5/2 24/6/2 3/7/2 21/8/2
f 75/9/3 26/4/3 4/3/3 22/10/3
f 74/11/4 27/12/4 5/13/4 23/14/4
f 73/15/5 85/16/5 80/17/5 33/18/5
f 72/19/6 38/20/6 10/21/6 23/22/6
f 71/23/7 39/24/7 15/25/7 40/26/7
f 70/27/8 28/28/8 82/29/8 41/30/8
f 69/31/9 42/32/9 10/33/9 33/34/9
f 68/35/10 43/36/10 16/37/10 44/38/10
f 67/39/11 37/2/11 14/40/11 45/41/11
f 66/42/12 46/43/12 9/44/12 32/45/12
f 65/46/13 47/47/13 17/48/13 48/49/13
f 64/50/14 36/51/14 13/52/14 49/53/14
f 63/54/15 50/55/15 7/56/15 30/57/15
f 62/58/16 51/59/16 18/60/16 52/61/16
f 61/62/17 34/63/17 11/64/17 53/65/17
f 60/66/18 54/67/18 13/52/18 36/51/18
f 59/68/19 55/69/19 19/70/19 56/71/19
f 58/72/20 27/12/20 14/40/20 57/73/20
f 55/69/21 58/72/21 57/73/21 19/70/21
f 12/74/22 25/75/22 58/72/22 55/69/22
f 25/75/23 5/13/23 27/12/23 58/72/23
f 34/63/24 59/68/24 56/71/24 11/64/24
f 2/76/25 35/77/25 59/68/25 34/63/25
f 35/77/26 12/74/26 55/69/26 59/68/26
f 24/6/27 60/66/27 36/51/27 3/7/27
f 11/64/28 56/71/28 60/66/28 24/6/28
f 56/71/29 19/70/29 54/67/29 60/66/29
f 51/59/30 61/62/30 53/65/30 18/60/30
f 6/78/31 20/79/31 61/62/31 51/59/31
f 20/79/32 2/76/32 34/63/32 61/62/32
f 88/80/33 62/58/33 52/61/33 81/81/33
f 78/82/34 29/83/34 62/58/34 88/80/34
f 29/83/35 6/78/35 51/59/35 62/58/35
f 84/84/36 63/54/36 30/57/36 79/85/36
f 81/81/37 52/61/37 63/54/37 84/84/37
f 52/61/38 18/60/38 50/55/38 63/54/38
f 47/47/39 64/50/39 49/53/39 17/48/39
f 7/86/40 21/87/40 64/50/40 47/47/40
f 21/87/41 3/7/41 36/51/41 64/50/41
f 89/88/42 65/46/42 48/49/42 83/89/42
f 79/90/43 30/91/43 65/46/43 89/88/43
f 30/91/44 7/86/44 47/47/44 65/46/44
f 86/92/45 66/42/45 32/45/45 1/93/45
f 83/89/46 48/49/46 66/42/46 86/92/46
f 48/49/47 17/48/47 46/43/47 66/42/47
f 43/36/48 67/39/48 45/41/48 16/37/48
f 9/94/49 22/95/49 67/39/49 43/36/49
f 22/95/50 4/3/50 37/2/50 67/39/50
f 31/96/51 68/35/51 44/38/51 8/97/51
f 1/98/52 32/99/52 68/35/52 31/96/52
f 32/99/53 9/94/53 43/36/53 68/35/53
f 87/100/54 69/31/54 33/34/54 80/101/54
f 8/97/55 44/38/55 69/31/55 87/100/55
f 44/38/56 16/37/56 42/32/56 69/31/56
f 39/24/57 70/27/57 41/30/57 15/25/57
f 6/102/58 29/103/58 70/27/58 39/24/58
f 29/103/59 78/104/59 28/28/59 70/27/59
f 35/77/60 71/23/60 40/26/60 12/74/60
f 2/76/61 20/105/61 71/23/61 35/77/61
f 20/105/62 6/102/62 39/24/62 71/23/62
f 25/75/63 72/19/63 23/22/63 5/13/63
f 12/74/64 40/26/64 72/19/64 25/75/64
f 40/26/65 15/25/65 38/20/65 72/19/65
f 38/20/66 73/15/66 33/18/66 10/21/66
f 15/25/67 41/30/67 73/15/67 38/20/67
f 41/30/68 82/29/68 85/16/68 73/15/68
f 42/32/69 74/11/69 23/14/69 10/33/69
f 16/37/70 45/41/70 74/11/70 42/32/70
f 45/41/71 14/40/71 27/12/71 74/11/71
f 46/43/72 75/9/72 22/10/72 9/44/72
f 17/48/73 49/53/73 75/9/73 46/43/73
f 49/53/74 13/52/74 26/4/74 75/9/74
f 50/55/75 76/5/75 21/8/75 7/56/75
f 18/60/76 53/65/76 76/5/76 50/55/76
f 53/65/77 11/64/77 24/6/77 76/5/77
f 54/67/78 77/1/78 26/4/78 13/52/78
f 19/70/79 57/73/79 77/1/79 54/67/79
f 57/73/80 14/40/80 37/2/80 77/1/80
f 28/28/81 78/104/81 94/106/81 92/107/81
f 78/82/82 88/80/82 104/108/82 94/109/82
f 80/17/83 85/16/83 101/110/83 96/111/83
f 31/96/84 8/97/84 91/112/84 93/113/84
f 79/90/85 89/88/85 105/114/85 95/115/85
f 87/100/86 80/101/86 96/116/86 103/117/86
f 86/92/87 1/93/87 90/118/87 102/119/87
f 88/80/88 81/81/88 97/120/88 104/108/88
f 82/29/89 28/28/89 92/107/89 98/121/89
f 89/88/90 83/89/90 99/122/90 105/114/90
f 1/98/91 31/96/91 93/113/91 90/123/91
f 81/81/92 84/84/92 100/124/92 97/120/92
f 85/16/93 82/29/93 98/121/93 101/110/93
f 8/97/94 87/100/94 103/117/94 91/112/94
f 83/89/95 86/92/95 102/119/95 99/122/95
f 84/84/96 79/85/96 95/125/96 100/124/96
f 96/126/97 101/127/97 103/128/97
f 104/129/98 92/130/98 94/131/98
f 95/115/98 105/114/98 100/132/98
f 97/133/99 98/134/99 92/130/99 104/129/99
f 105/114/100 99/122/100 97/133/100 100/132/100
f 90/118/101 93/135/101 102/119/101
f 93/135/102 91/136/102 99/122/102 102/119/102
f 101/127/103 98/134/103 91/136/103 103/128/103
f 97/133/104 99/122/104 91/136/104 98/134/104
