# Blender v2.79 (sub 0) OBJ File: 'IceShard.blend'
# www.blender.org
mtllib IceShard.mtl
o Icosphere
v 0.000000 -0.000000 -0.986815
v -0.228222 0.165811 -0.441318
v 0.087171 0.268290 -0.441318
v 0.282099 -0.000000 -0.441318
v 0.087171 -0.268290 -0.441318
v -0.228222 -0.165811 -0.441318
v -0.087171 0.268290 0.441318
v 0.228222 0.165811 0.441318
v 0.228222 -0.165811 0.441318
v -0.087171 -0.268290 0.441318
v -0.282099 -0.000000 0.441318
v -0.000000 -0.000000 0.986815
v -0.109553 0.337163 -0.230314
v -0.354517 -0.000000 -0.230314
v 0.286811 0.208379 -0.230314
v 0.286811 -0.208379 -0.230314
v -0.109553 -0.337164 -0.230314
v -0.286811 0.208379 0.230314
v 0.109553 0.337164 0.230314
v 0.354517 -0.000000 0.230314
v 0.109553 -0.337163 0.230314
v -0.286811 -0.208379 0.230314
vt 0.730800 0.012645
vt 0.814771 0.314969
vt 0.729370 0.419994
vt 0.645337 0.314550
vt 0.840184 0.035346
vt 0.963863 0.287414
vt 0.909750 0.411750
vt 0.562599 0.013085
vt 0.560326 0.418689
vt 0.476529 0.313616
vt 0.393811 0.012154
vt 0.391568 0.417749
vt 0.307724 0.312671
vt 0.225633 0.009837
vt 0.222522 0.417169
vt 0.138299 0.311201
vt 0.221596 0.697190
vt 0.136508 0.595824
vt 0.059252 0.700678
vt 0.042249 0.406916
vt 0.889472 0.705310
vt 0.813389 0.599600
vt 0.727174 0.700013
vt 0.798876 0.992050
vt 0.558732 0.699019
vt 0.643683 0.595096
vt 0.641181 0.999863
vt 0.390034 0.698076
vt 0.474967 0.594005
vt 0.472702 0.999353
vt 0.306250 0.593213
vt 0.304235 0.997971
vt 0.146645 0.988404
vn -0.2798 0.8612 -0.4243
vn -0.9055 0.0000 -0.4243
vn 0.7326 0.5322 -0.4243
vn 0.7326 -0.5322 -0.4243
vn -0.2798 -0.8612 -0.4243
vn -0.5878 -0.8090 -0.0000
vn -0.9511 -0.3090 -0.0000
vn -0.9511 0.3090 -0.0000
vn -0.5878 0.8090 -0.0000
vn -0.7326 0.5322 0.4243
vn 0.2798 0.8612 0.4243
vn 0.9055 -0.0000 0.4243
vn 0.2798 -0.8612 0.4243
vn -0.7326 -0.5322 0.4243
vn 0.0000 -1.0000 0.0000
vn 0.5878 -0.8090 0.0000
vn 0.9511 -0.3090 0.0000
vn 0.9511 0.3090 0.0000
vn 0.5878 0.8090 0.0000
vn -0.0000 1.0000 0.0000
usemtl None
s off
f 1/1/1 2/2/1 13/3/1 3/4/1
f 2/2/2 1/5/2 6/6/2 14/7/2
f 1/8/3 3/4/3 15/9/3 4/10/3
f 1/11/4 4/10/4 16/12/4 5/13/4
f 1/14/5 5/13/5 17/15/5 6/16/5
f 6/16/6 17/15/6 10/17/6 22/18/6
f 22/18/7 11/19/7 14/20/7 6/16/7
f 2/2/8 14/7/8 11/21/8 18/22/8
f 13/3/9 2/2/9 18/22/9 7/23/9
f 7/23/10 18/22/10 11/21/10 12/24/10
f 8/25/11 19/26/11 7/23/11 12/27/11
f 9/28/12 20/29/12 8/25/12 12/30/12
f 10/17/13 21/31/13 9/28/13 12/32/13
f 11/19/14 22/18/14 10/17/14 12/33/14
f 17/15/15 5/13/15 21/31/15 10/17/15
f 5/13/16 16/12/16 9/28/16 21/31/16
f 9/28/17 16/12/17 4/10/17 20/29/17
f 4/10/18 15/9/18 8/25/18 20/29/18
f 8/25/19 15/9/19 3/4/19 19/26/19
f 3/4/20 13/3/20 7/23/20 19/26/20
